<svg width="255" height="208" viewBox="0 0 255 208" fill="none" xmlns="http://www.w3.org/2000/svg">
<g clip-path="url(#clip0_445_2299)">
<path d="M249.781 123.494C249.781 123.545 249.781 123.545 249.731 123.545C250.897 120.164 251.496 116.612 251.504 113.033C251.486 109.654 250.956 106.299 249.933 103.082C252.143 96.2292 252.018 88.8301 249.579 82.0571C250.847 78.5047 251.499 74.7587 251.504 70.9835C251.475 66.2089 250.439 61.4949 248.464 57.1543C248.67 58.4709 248.772 59.8019 248.768 61.1347C248.768 90.8854 195.519 114.206 127.475 114.206C59.4308 114.206 6.13056 90.8854 6.13056 61.1347C6.14589 59.8006 6.26445 58.4698 6.48519 57.1543C4.51007 61.4949 3.47385 66.2089 3.44525 70.9835C3.47094 72.4168 3.57244 73.8477 3.74927 75.2701C3.8506 75.9335 3.95194 76.6479 4.10393 77.3113C4.25593 77.9747 4.25591 77.9747 4.30658 78.2809C4.35724 78.5871 4.61057 79.6077 4.81323 80.2711L5.11724 81.2407C14.7437 111.144 65.8653 133.955 127.475 133.955C141.658 133.98 155.816 132.733 169.78 130.23C97.43 152.122 26.3461 125.382 3.69858 97.0091C3.71691 97.0298 3.73088 97.054 3.73959 97.0803C3.7483 97.1067 3.7516 97.1345 3.74927 97.1621C3.85188 98.0883 4.00408 99.0082 4.20524 99.9178C4.19766 99.9897 4.21562 100.062 4.25592 100.122C11.0958 131.608 63.636 156.102 127.475 156.102C141.661 156.136 155.821 154.872 169.78 152.326C98.0379 171.769 27.9167 148.142 4.5599 121.351C4.60358 121.628 4.6714 121.901 4.76258 122.167C3.5466 122.218 0 125.892 0 129.464V150.132C0 182.128 57.0495 208.051 127.475 208.051C197.9 208.051 254.949 182.128 254.949 150.132V129.464C254.949 125.535 250.44 122.575 249.781 123.494ZM2.98928 151.714C2.98928 153.091 2.83729 153.296 2.73595 153.449H2.58396C2.07731 152.428 2.02662 149.111 2.02662 148.754V130.995C2.02662 129.618 2.12797 129.464 2.2293 129.26H2.33064L2.48263 129.566C2.7917 130.992 2.96139 132.445 2.98928 133.904V151.714ZM5.52256 157.021C5.57177 157.573 5.50265 158.13 5.31989 158.654C4.76257 159.47 4.05326 156.919 4.00259 154.112V136.354C3.99419 136.029 4.01112 135.705 4.05325 135.384C4.15458 134.772 4.30657 134.261 4.71189 134.976C5.29045 136.328 5.56721 137.791 5.52256 139.262V157.021ZM9.11981 162.124C9.11981 162.43 9.11982 163.4 8.81583 163.757C8.51183 164.114 7.0932 162.328 7.04253 159.317V141.559C7.04253 139.977 7.44786 139.415 8.05584 140.13C8.66383 140.844 9.06914 142.222 9.11981 144.365V162.124ZM13.6797 166.972C13.7355 167.563 13.5928 168.156 13.2744 168.656C12.5144 169.523 11.1464 167.278 11.0451 164.318V146.56C11.0958 144.927 11.5518 144.365 12.3624 145.029C13.2395 146.243 13.7017 147.712 13.6797 149.213V166.972ZM19.1516 171.616C19.1905 172.167 19.0672 172.717 18.797 173.197C17.885 174.371 16.1117 172.177 16.0103 169.115V151.356C16.061 149.723 16.669 149.111 17.581 149.775C18.493 150.438 19.1009 151.765 19.1516 153.857V171.616ZM25.4848 176.004C25.5025 176.56 25.3619 177.109 25.0795 177.586C24.0662 178.811 21.9889 176.668 21.8875 173.606V155.898C21.9382 154.265 22.6475 153.602 23.6608 154.214C24.6742 154.827 25.4341 156.102 25.4848 158.246V176.004ZM32.6287 180.087C32.6761 180.653 32.5137 181.216 32.1727 181.669C31.058 182.995 28.7274 180.954 28.6261 177.892V160.134C28.6767 158.501 29.4367 157.837 30.602 158.399C31.7673 158.96 32.578 160.236 32.6287 162.328V180.087ZM40.5832 183.863C40.5732 184.366 40.4335 184.859 40.1778 185.292C39.0125 186.976 36.2259 185.037 36.1246 181.822V164.063C36.1752 162.43 37.0366 161.716 38.3032 162.226C38.9789 162.624 39.5428 163.189 39.9417 163.868C40.3405 164.546 40.5613 165.316 40.5832 166.104V183.863ZM49.1963 187.282C49.197 187.81 49.038 188.327 48.7403 188.762C47.5243 190.446 44.4844 188.66 44.3324 185.445V167.686C44.4337 166.053 45.3457 165.288 46.7137 165.747C47.4363 166.08 48.0518 166.611 48.4906 167.278C48.9294 167.945 49.1738 168.723 49.1963 169.523V187.282ZM58.4681 190.344C58.4953 190.876 58.3336 191.4 58.0121 191.824C56.6441 193.61 53.4016 191.926 53.2496 188.711V170.952C53.3509 169.319 54.3135 168.554 55.8335 168.962C56.5877 169.238 57.2422 169.736 57.712 170.391C58.1818 171.046 58.4452 171.828 58.4681 172.636V190.344ZM68.3479 193.048C68.3589 193.578 68.1989 194.098 67.8919 194.528C66.4226 196.365 62.9773 194.834 62.8253 191.619V173.861C62.9267 172.228 63.94 171.411 65.5613 171.718C66.3321 171.956 67.0121 172.425 67.5102 173.064C68.0083 173.702 68.3006 174.479 68.3479 175.29V193.048ZM78.785 195.294C78.8056 195.849 78.6256 196.393 78.2784 196.825C76.7584 198.713 73.1105 197.335 72.9585 194.12V176.361C73.0598 174.728 74.1744 173.861 75.8464 174.116C76.6487 174.285 77.3727 174.717 77.9046 175.345C78.4365 175.973 78.7462 176.761 78.785 177.586V195.294ZM89.7288 197.131C89.7494 197.686 89.5693 198.23 89.2221 198.662C87.6515 200.652 83.8009 199.376 83.6489 196.212V178.454C83.7503 176.77 84.9156 175.851 86.6889 176.055C87.4934 176.18 88.2322 176.576 88.7844 177.179C89.3366 177.781 89.6695 178.554 89.7288 179.372V197.131ZM101.129 198.509C101.148 199.088 100.949 199.653 100.571 200.09C99.0006 202.03 94.9473 200.958 94.7954 197.794V180.087C94.8967 178.403 96.1126 177.433 97.9366 177.586C99.7606 177.739 101.027 178.658 101.129 180.75V198.509ZM112.934 199.376C112.953 199.955 112.754 200.52 112.376 200.958C110.654 203.101 106.55 202.132 106.398 198.968V181.209C106.448 179.576 107.715 178.556 109.64 178.607C111.566 178.658 112.832 179.525 112.934 181.618V199.376ZM125.093 199.784C125.059 200.291 124.903 200.781 124.637 201.213C123.067 203.459 118.507 202.846 118.304 199.631V181.873C118.406 180.189 119.723 179.117 121.699 179.117C123.675 179.117 124.992 180.138 125.093 182.026V199.784ZM137.253 199.58C137.242 200.17 137.047 200.741 136.696 201.213C135.024 203.459 130.768 202.897 130.565 199.784V182.026C130.667 180.342 131.933 179.219 133.909 179.066C135.885 178.913 137.101 179.78 137.253 181.873V199.58ZM149.109 198.917C149.098 199.546 148.885 200.155 148.501 200.652C146.778 202.897 142.776 202.438 142.624 199.376V181.618C142.674 179.934 143.941 178.76 145.866 178.556C147.792 178.352 149.058 179.321 149.109 181.158V198.917ZM160.61 197.743C160.607 198.414 160.375 199.063 159.951 199.58C158.279 201.775 154.479 201.468 154.327 198.458V180.699C154.378 179.066 155.645 177.79 157.469 177.484C159.293 177.178 160.509 178.147 160.61 179.985V197.743ZM171.706 196.11C171.656 196.811 171.41 197.483 170.996 198.049C169.324 200.295 165.778 200.039 165.626 197.08V179.321C165.676 178.5 166.006 177.722 166.56 177.118C167.113 176.513 167.857 176.12 168.666 176.004C169.679 175.851 171.554 176.106 171.706 178.352V196.11ZM182.295 194.018C182.291 194.735 182.061 195.432 181.636 196.008C180.116 198.253 176.671 198.151 176.519 195.243V177.484C176.563 176.669 176.869 175.89 177.389 175.265C177.91 174.639 178.618 174.2 179.407 174.014C180.37 173.81 182.193 174.065 182.295 176.259V194.018ZM192.428 191.517C192.396 192.332 192.112 193.117 191.617 193.763C190.047 195.855 187.057 195.753 186.905 192.946V175.188C186.945 174.375 187.235 173.595 187.734 172.955C188.233 172.315 188.917 171.847 189.692 171.616C190.553 171.411 192.327 171.513 192.428 173.759V191.517ZM201.953 188.609C201.889 189.521 201.554 190.392 200.99 191.109C199.47 193.048 196.887 192.946 196.735 190.242V172.483C196.777 171.68 197.048 170.907 197.515 170.256C197.982 169.604 198.626 169.102 199.369 168.809C200.23 168.554 201.852 168.656 201.953 170.85V188.609ZM210.82 185.343C210.805 186.263 210.504 187.156 209.958 187.894C208.54 189.884 206.108 189.833 206.006 187.18V169.421C206.012 168.624 206.244 167.845 206.675 167.176C207.106 166.507 207.718 165.976 208.438 165.645C209.249 165.339 210.718 165.339 210.82 167.584V185.343ZM219.027 181.669C219.027 182.702 218.689 183.706 218.065 184.526C216.747 186.363 214.721 186.261 214.619 183.71V166.002C214.616 165.215 214.821 164.44 215.213 163.759C215.604 163.077 216.169 162.513 216.849 162.124C217.558 161.767 218.977 161.716 219.027 163.91V181.669ZM226.526 177.739C226.501 178.863 226.129 179.951 225.462 180.852C224.297 182.485 222.574 182.332 222.473 179.933V162.175C222.574 160.542 223.334 158.96 224.55 158.246C225.766 157.531 226.425 157.786 226.526 159.981V177.739ZM233.214 173.453C233.205 174.674 232.835 175.864 232.15 176.872C231.086 178.301 229.718 178.147 229.617 175.851V158.092C229.667 156.408 230.376 154.827 231.44 154.061C232.504 153.296 233.112 153.5 233.214 155.694V173.453ZM239.04 168.911C238.99 171.258 238.027 172.534 237.824 172.738C236.963 173.81 236 173.504 235.95 171.462V153.704C236 152.02 236.608 150.438 237.52 149.57C238.432 148.703 238.99 149.009 239.04 151.152V168.911ZM244.006 164.114C244.031 165.562 243.625 166.983 242.84 168.196C242.283 168.911 241.422 168.962 241.371 166.819V149.06C241.422 147.376 241.928 145.743 242.739 144.825C243.55 143.906 243.955 144.212 244.006 146.355V164.114ZM248.008 159.113C247.957 161.46 247.299 162.94 246.995 163.4C246.691 163.859 245.931 163.961 245.931 161.92V144.161C245.9 142.662 246.268 141.183 246.995 139.875C247.045 139.824 247.957 138.65 248.008 141.354V159.113ZM250.997 153.857C250.947 156.306 250.44 158.092 250.085 158.45C249.731 158.807 249.477 158.858 249.477 156.766V139.007C249.448 137.542 249.706 136.085 250.237 134.721L250.389 134.465C250.643 134.21 250.947 134.312 250.997 136.098V153.857ZM252.923 148.448C252.923 149.826 252.771 152.632 252.315 153.194C251.859 153.755 252.011 153.04 251.96 151.459V133.7C251.981 132.224 252.151 130.753 252.467 129.311L252.669 128.954H252.771C252.905 129.505 252.956 130.072 252.923 130.638V148.448Z" fill="#007934"/>
<path d="M101.99 70.8813H92.7686V73.2696H101.99V70.8813Z" fill="#007934"/>
<path d="M115.416 75.6782H106.094V78.1124H115.416V75.6782Z" fill="#007934"/>
<path d="M152.959 23.0146H148.45V25.9591H152.959V23.0146Z" fill="#007934"/>
<path d="M115.416 70.8813H106.094V73.2696H115.416V70.8813Z" fill="#007934"/>
<path d="M152.909 28.7812H148.45V31.8941L152.909 31.4859V28.7812Z" fill="#007934"/>
<path d="M165.271 78.4336H156.962V81.8067H165.271V78.4336Z" fill="#007934"/>
<path d="M165.271 84.6597H156.962V88.0328H165.271V84.6597Z" fill="#007934"/>
<path d="M112.022 80.5771H106.094V83.5369H112.883C111.979 82.9799 111.03 82.5018 110.046 82.1081L112.022 80.5771Z" fill="#007934"/>
<path d="M165.271 72.2593H156.962V75.5456H165.271V72.2593Z" fill="#007934"/>
<path d="M152.959 17.146H148.45V20.1364H152.959V17.146Z" fill="#007934"/>
<path d="M139.584 36.7417H136.442V42.9725H139.584V36.7417Z" fill="#007934"/>
<path d="M144.751 83.6899H141.104V85.6546H144.751V83.6899Z" fill="#007934"/>
<path d="M117.747 17.3506H108.982C108.323 18.2691 107.664 19.1877 106.904 20.0552C108.783 21.46 110.576 22.9766 112.275 24.5969C114.466 22.4869 116.313 20.0413 117.747 17.3506Z" fill="#007934"/>
<path d="M117.747 33.7822H108.526V42.6615H117.747V33.7822Z" fill="#007934"/>
<path d="M144.751 88.0273H141.104V89.992H144.751V88.0273Z" fill="#007934"/>
<path d="M127.525 0C59.0759 0 3.54639 24.3925 3.54639 54.5005C3.54639 84.6084 59.0759 108.95 127.525 108.95C195.974 108.95 251.504 84.6084 251.504 54.5005C251.504 24.3925 195.974 0 127.525 0ZM109.235 9.28754L113.085 9.8999C112.525 11.2322 111.882 12.5276 111.16 13.7782H119.672L120.331 13.6251L122.712 14.7988C120.548 21.0072 116.553 26.4019 111.261 30.261H121.496V48.3768H117.747V46.2846H108.475V48.4789H104.776V34.0883C104.033 34.5014 103.253 34.8431 102.446 35.1089C101.86 33.9784 101.127 32.9315 100.267 31.9961C103.57 30.8582 106.668 29.1863 109.438 27.0461C107.894 25.4634 106.252 23.9805 104.523 22.6065C103.864 23.2188 103.206 23.8312 102.446 24.4436C101.698 23.4442 100.77 22.5959 99.7097 21.9431C104.018 18.7258 107.323 14.3347 109.235 9.28754ZM109.742 91.3955L107.107 93.7429C105.739 92.212 102.851 90.0687 100.368 88.6909L102.699 86.7517L86.5873 86.9558L86.3847 83.5878C90.5393 83.6389 96.0111 83.5878 101.99 83.5368V80.577H89.0193V68.4318H101.99V66.0334H86.3847V62.8695H101.99V60.5731H106.094V62.8695H122.205V66.0334H106.094V68.4318H119.317V80.577H113.845C117.088 82.21 120.635 84.5574 122.509 86.3945L119.824 88.5888C119.075 87.8257 118.279 87.1099 117.443 86.4455L103.206 86.7517C105.587 88.0275 108.374 89.9156 109.742 91.3955ZM100.875 33.0167C100.014 35.6192 99.1017 38.579 98.3924 40.4671L95.9604 39.7017C96.705 37.2369 97.314 34.7326 97.7845 32.2002L100.875 33.0167ZM91.5526 42.3553V30.7203H85.2194V27.3013H91.5526V23.2699H87.55V21.9431L86.2833 23.0658C85.8415 21.7251 85.2464 20.4407 84.51 19.2385C87.8323 16.5123 90.5142 13.0792 92.3632 9.18548L95.7071 10.3592C95.4538 10.7674 95.2005 11.2777 94.9471 11.737C97.3284 13.5231 100.115 15.7684 101.635 17.1462L99.5577 20.2591C98.1391 18.8302 95.5552 16.6359 93.2752 14.7478C92.1197 16.5624 90.8504 18.301 89.4753 19.9529H99.0511V23.2699H94.9471V27.3013H100.672V30.7203H94.9471V41.6919L101.128 40.6202L101.331 43.7331L85.6247 47.1011L84.7634 43.5289L91.5526 42.3553ZM85.726 33.3229L88.4113 32.6084C89.07 35.0579 89.8299 38.2218 90.1339 40.212L87.2966 41.0285C86.9384 38.4285 86.4138 35.8546 85.726 33.3229ZM88.6139 98.4887L85.2194 96.5496C86.8913 94.5594 88.3606 91.3955 89.1713 88.7929L92.5659 90.2218C91.6539 92.8754 90.2859 96.2944 88.6139 98.4887ZM109.843 99.1011H100.875C95.6058 99.1011 94.2379 98.1315 94.2379 94.5594V89.0481H98.1391V94.5084C98.1391 95.6821 98.5951 95.8351 101.179 95.8351H109.488C111.515 95.8351 111.869 95.3248 112.072 91.8037C113.134 92.4466 114.3 92.8957 115.517 93.1305C115.011 97.9784 113.845 99.1011 109.843 99.1011ZM119.317 98.3356C118.608 96.0903 116.683 92.6713 114.757 90.0687L118.152 88.946C120.128 91.3955 122.155 94.7635 122.915 97.0599L119.317 98.3356ZM157.215 18.422H164.612V9.59372H168.159V18.422H170.388V22.0451H168.159V43.9372C168.159 45.9274 167.754 46.897 166.538 47.5093C165.322 48.1217 163.447 48.2238 160.711 48.2238C160.394 47.0144 159.97 45.8361 159.444 44.7027C161.319 44.8047 163.194 44.8047 163.802 44.8047C164.41 44.8047 164.612 44.5496 164.612 43.8862V22.0451H157.215V18.422ZM168.615 69.1973V91.1403H153.669V69.1973H158.735C158.887 68.1256 159.039 66.9009 159.191 65.8293H152.605V62.4612H169.882V65.8293H163.143C162.839 67.02 162.535 68.1426 162.231 69.1973H168.615ZM160.812 35.8744C160.17 32.4598 159.168 29.124 157.823 25.9235L160.762 25.107C162.19 28.2184 163.245 31.4905 163.903 34.8538L160.812 35.8744ZM145.207 14.0334H148.349C148.817 12.4762 149.19 10.8912 149.463 9.28754L153.314 9.8999L151.693 14.0334H156.151V30.21L156.557 29.6487L159.495 30.7203C158.512 32.2961 157.393 33.7817 156.151 35.16V44.3454C156.151 46.0805 155.847 47.0501 154.733 47.6624C153.618 48.2748 151.895 48.2748 149.413 48.2748C149.192 47.1327 148.799 46.0314 148.247 45.0088H152.199C152.757 45.0088 152.909 44.8047 152.909 44.2434V38.579C150.415 40.8936 147.68 42.9296 144.751 44.6516C144.263 43.5782 143.704 42.5383 143.079 41.5388C146.621 39.7124 149.867 37.3552 152.706 34.5476L143.941 35.4661L143.637 32.3533L145.207 32.2512V14.0334ZM138.114 9.54269C139.09 11.3234 139.872 13.2055 140.445 15.156L137.456 16.3297C136.947 14.3477 136.216 12.4303 135.277 10.6143L138.114 9.54269ZM132.186 16.4318H143.637V19.6467H132.186V16.4318ZM133.605 30.9755V27.8116H142.573V30.9755H133.605ZM142.522 33.629V46.0805H136.442V47.9686H133.504V33.629H142.522ZM133.605 25.2601V22.1472H142.573V25.2601H133.605ZM153.567 99.8155C152.78 98.9234 151.915 98.1037 150.983 97.3661L151.49 97.1109H141.104V99.2542H138.114V87.5172L137.101 88.7929L136.442 87.7723C136.037 91.8548 135.378 96.0903 134.112 99.4073C133.219 98.7011 132.206 98.165 131.122 97.8253C133.402 91.8037 133.554 83.3837 133.554 77.4132V63.788H133.605C138.773 63.2777 144.954 62.4102 148.349 61.2875L151.237 63.9411C147.335 65.1658 141.864 65.9823 136.848 66.4416V68.1256H151.389V77.3621H136.848C136.848 79.4034 136.797 81.8528 136.696 84.3533C138.079 82.2165 139.122 79.8748 139.786 77.4132L142.624 78.1786C142.32 79.1482 141.914 80.1178 141.61 81.0363H144.701C144.346 80.1688 143.941 79.1992 143.485 78.3317L146.119 77.6683C146.777 78.7375 147.337 79.8649 147.791 81.0363H151.845V83.6899H147.437V85.6291H151.439V88.0275H147.437V89.9666H151.49V92.3651H147.437V94.4063H152.149V96.7027C154.109 95.4659 155.841 93.8945 157.266 92.0589L160.559 93.896C158.533 96.2081 156.177 98.2033 153.567 99.8155ZM167.551 99.4583C166.025 97.4286 164.293 95.5645 162.383 93.896L165.22 92.0589C167.155 93.6748 168.936 95.4686 170.54 97.4171L167.551 99.4583Z" fill="#007934"/>
<path d="M144.751 92.3652H141.104V94.3707H144.751V92.3652Z" fill="#007934"/>
<path d="M147.842 71.1875H136.848V74.3055H147.842V71.1875Z" fill="#007934"/>
<path d="M101.99 75.6782H92.7686V78.1124H101.99V75.6782Z" fill="#007934"/>
</g>
<defs>
<clipPath id="clip0_445_2299">
<rect width="255" height="208" fill="white"/>
</clipPath>
</defs>
</svg>
